[

     {
          "campo01": "ID",
          "campo02": "BCP",
          "campo03": "BCP",
          "campo04": "09:44:30",
          "campo05": "15/2/2020",
          "campo06": "Interbancaria5",
          "campo07": "Failed",
          "campo08": "Rol1",
          "campo09": "Trace1",
          "campo10": "Canal1",
          "campo11": "0101-0303-0505-0606-0707",
          "campo12": "0808-0444",
          "campo13": "0001",
          "campo14": "Soles",
          "campo15": "788655",
          "campo16": "045588",
          "campo17": "789787",
     },
     {
          "campo01": "ID",
          "campo02": "BCP",
          "campo03": "BN",
          "campo04": "07:08:30",
          "campo05": "17/2/2020",
          "campo06": "Interbancaria2",
          "campo07": "Successful",
          "campo08": "Rol1",
          "campo09": "Trace1",
          "campo10": "Canal1",
          "campo11": "0101-0303-0505-0606-0707",
          "campo12": "0808-0444",
          "campo13": "0001",
          "campo14": "Euros",
          "campo15": "045588",
          "campo16": "444567",
          "campo17": "788655",
     }
]